{
  "name": "bandco/bandco",
  "homepage": "https://composer.bcnco.site",
  "repositories": [
    { "type": "vcs", "url": "https://bitbucket.org/greg_bandco/advanced-custom-fields-pro.git" },
    { "type": "vcs", "url": "https://bitbucket.org/greg_bandco/bandco.git" },
    { "type": "vcs", "url": "https://bitbucket.org/greg_bandco/bcnco-carte-interactive.git" },
    { "type": "vcs", "url": "https://bitbucket.org/greg_bandco/faq.git" },
    { "type": "vcs", "url": "https://bitbucket.org/greg_bandco/gravity-forms.git" }
  ],
  "require-all": true
}